{
  "request": {
    "method": "GET",
    "queryParameters": {
      "page": {
        "equalTo": "3"
      },
      "pageSize": {
        "equalTo": "75"
      }
    },
    "urlPath": "/orders"
  },
  "response": {
    "headers": {
      "Content-Type": "application/json"
    },
    "jsonBody": {
      "data": [
        {
          "investorId": "INV-005",
          "orderId": "ORD-0151",
          "quantity": 56,
          "side": "SELL",
          "status": "FILLED",
          "symbol": "TSLA",
          "tradeDate": "2026-07-13"
        },
        {
          "investorId": "INV-005",
          "orderId": "ORD-0152",
          "quantity": 607,
          "side": "BUY",
          "status": "NEW",
          "symbol": "TSLA",
          "tradeDate": "2026-07-09"
        },
        {
          "investorId": "INV-005",
          "orderId": "ORD-0153",
          "quantity": 1956,
          "side": "SELL",
          "status": "PARTIALLY_FILLED",
          "symbol": "TSLA",
          "tradeDate": "2026-07-15"
        },
        {
          "investorId": "INV-005",
          "orderId": "ORD-0154",
          "quantity": 55000,
          "side": "SELL",
          "status": "PARTIALLY_FILLED",
          "symbol": "CORP-GE-2031",
          "tradeDate": "2026-07-15"
        },
        {
          "investorId": "INV-005",
          "orderId": "ORD-0155",
          "quantity": 11000,
          "side": "SELL",
          "status": "FILLED",
          "symbol": "CORP-IBM-2029",
          "tradeDate": "2026-07-06"
        },
        {
          "investorId": "INV-005",
          "orderId": "ORD-0156",
          "quantity": 81000,
          "side": "BUY",
          "status": "PARTIALLY_FILLED",
          "symbol": "CORP-IBM-2029",
          "tradeDate": "2026-07-10"
        },
        {
          "investorId": "INV-005",
          "orderId": "ORD-0157",
          "quantity": 97000,
          "side": "BUY",
          "status": "NEW",
          "symbol": "MUNI-CA-2036",
          "tradeDate": "2026-07-16"
        },
        {
          "investorId": "INV-005",
          "orderId": "ORD-0158",
          "quantity": 56000,
          "side": "SELL",
          "status": "FILLED",
          "symbol": "MUNI-NY-2033",
          "tradeDate": "2026-07-10"
        },
        {
          "investorId": "INV-005",
          "orderId": "ORD-0159",
          "quantity": 43000,
          "side": "SELL",
          "status": "CANCELLED",
          "symbol": "T-2027-11",
          "tradeDate": "2026-07-08"
        },
        {
          "investorId": "INV-005",
          "orderId": "ORD-0160",
          "quantity": 53000,
          "side": "BUY",
          "status": "FILLED",
          "symbol": "T-2027-11",
          "tradeDate": "2026-07-06"
        },
        {
          "investorId": "INV-005",
          "orderId": "ORD-0161",
          "quantity": 88000,
          "side": "BUY",
          "status": "CANCELLED",
          "symbol": "T-2035-08",
          "tradeDate": "2026-07-15"
        },
        {
          "investorId": "INV-005",
          "orderId": "ORD-0162",
          "quantity": 74000,
          "side": "BUY",
          "status": "CANCELLED",
          "symbol": "T-2035-08",
          "tradeDate": "2026-07-17"
        },
        {
          "investorId": "INV-005",
          "orderId": "ORD-0163",
          "quantity": 100000,
          "side": "BUY",
          "status": "CANCELLED",
          "symbol": "T-2035-08",
          "tradeDate": "2026-07-13"
        },
        {
          "investorId": "INV-005",
          "orderId": "ORD-0164",
          "quantity": 1101,
          "side": "BUY",
          "status": "FILLED",
          "symbol": "ART-FUND-III",
          "tradeDate": "2026-07-16"
        },
        {
          "investorId": "INV-005",
          "orderId": "ORD-0165",
          "quantity": 825,
          "side": "BUY",
          "status": "CANCELLED",
          "symbol": "ART-FUND-III",
          "tradeDate": "2026-07-08"
        },
        {
          "investorId": "INV-005",
          "orderId": "ORD-0166",
          "quantity": 392,
          "side": "SELL",
          "status": "FILLED",
          "symbol": "GLD-ETF",
          "tradeDate": "2026-07-16"
        },
        {
          "investorId": "INV-005",
          "orderId": "ORD-0167",
          "quantity": 1788,
          "side": "BUY",
          "status": "FILLED",
          "symbol": "PE-FUND-VII",
          "tradeDate": "2026-07-17"
        },
        {
          "investorId": "INV-005",
          "orderId": "ORD-0168",
          "quantity": 867,
          "side": "SELL",
          "status": "PARTIALLY_FILLED",
          "symbol": "PE-FUND-VII",
          "tradeDate": "2026-07-10"
        },
        {
          "investorId": "INV-005",
          "orderId": "ORD-0169",
          "quantity": 210,
          "side": "SELL",
          "status": "PARTIALLY_FILLED",
          "symbol": "PE-FUND-VII",
          "tradeDate": "2026-07-15"
        },
        {
          "investorId": "INV-005",
          "orderId": "ORD-0170",
          "quantity": 1918,
          "side": "SELL",
          "status": "FILLED",
          "symbol": "REIT-VNQ",
          "tradeDate": "2026-07-06"
        },
        {
          "investorId": "INV-005",
          "orderId": "ORD-0171",
          "quantity": 499,
          "side": "SELL",
          "status": "FILLED",
          "symbol": "REIT-VNQ",
          "tradeDate": "2026-07-07"
        },
        {
          "investorId": "INV-005",
          "orderId": "ORD-0172",
          "quantity": 1716,
          "side": "SELL",
          "status": "FILLED",
          "symbol": "TIMBER-LP",
          "tradeDate": "2026-07-09"
        },
        {
          "investorId": "INV-005",
          "orderId": "ORD-0173",
          "quantity": 1218,
          "side": "SELL",
          "status": "NEW",
          "symbol": "TIMBER-LP",
          "tradeDate": "2026-07-17"
        },
        {
          "investorId": "INV-005",
          "orderId": "ORD-0174",
          "quantity": 391,
          "side": "SELL",
          "status": "FILLED",
          "symbol": "XOM",
          "tradeDate": "2026-07-13"
        },
        {
          "investorId": "INV-006",
          "orderId": "ORD-0175",
          "quantity": 1920,
          "side": "BUY",
          "status": "CANCELLED",
          "symbol": "AAPL",
          "tradeDate": "2026-07-10"
        },
        {
          "investorId": "INV-006",
          "orderId": "ORD-0176",
          "quantity": 992,
          "side": "BUY",
          "status": "FILLED",
          "symbol": "AMZN",
          "tradeDate": "2026-07-08"
        },
        {
          "investorId": "INV-006",
          "orderId": "ORD-0177",
          "quantity": 278,
          "side": "SELL",
          "status": "FILLED",
          "symbol": "JPM",
          "tradeDate": "2026-07-07"
        },
        {
          "investorId": "INV-006",
          "orderId": "ORD-0178",
          "quantity": 702,
          "side": "BUY",
          "status": "FILLED",
          "symbol": "NVDA",
          "tradeDate": "2026-07-17"
        },
        {
          "investorId": "INV-006",
          "orderId": "ORD-0179",
          "quantity": 340,
          "side": "SELL",
          "status": "FILLED",
          "symbol": "NVDA",
          "tradeDate": "2026-07-06"
        },
        {
          "investorId": "INV-006",
          "orderId": "ORD-0180",
          "quantity": 1376,
          "side": "SELL",
          "status": "NEW",
          "symbol": "NVDA",
          "tradeDate": "2026-07-17"
        },
        {
          "investorId": "INV-006",
          "orderId": "ORD-0181",
          "quantity": 490,
          "side": "SELL",
          "status": "PARTIALLY_FILLED",
          "symbol": "TSLA",
          "tradeDate": "2026-07-08"
        },
        {
          "investorId": "INV-006",
          "orderId": "ORD-0182",
          "quantity": 1670,
          "side": "SELL",
          "status": "FILLED",
          "symbol": "TSLA",
          "tradeDate": "2026-07-16"
        },
        {
          "investorId": "INV-006",
          "orderId": "ORD-0183",
          "quantity": 171,
          "side": "BUY",
          "status": "FILLED",
          "symbol": "UNH",
          "tradeDate": "2026-07-06"
        },
        {
          "investorId": "INV-006",
          "orderId": "ORD-0184",
          "quantity": 380,
          "side": "SELL",
          "status": "NEW",
          "symbol": "XOM",
          "tradeDate": "2026-07-17"
        },
        {
          "investorId": "INV-006",
          "orderId": "ORD-0185",
          "quantity": 62000,
          "side": "BUY",
          "status": "FILLED",
          "symbol": "CORP-GE-2031",
          "tradeDate": "2026-07-06"
        },
        {
          "investorId": "INV-006",
          "orderId": "ORD-0186",
          "quantity": 72000,
          "side": "BUY",
          "status": "FILLED",
          "symbol": "CORP-GE-2031",
          "tradeDate": "2026-07-06"
        },
        {
          "investorId": "INV-006",
          "orderId": "ORD-0187",
          "quantity": 64000,
          "side": "BUY",
          "status": "FILLED",
          "symbol": "CORP-IBM-2029",
          "tradeDate": "2026-07-17"
        },
        {
          "investorId": "INV-006",
          "orderId": "ORD-0188",
          "quantity": 59000,
          "side": "BUY",
          "status": "FILLED",
          "symbol": "CORP-MSFT-2033",
          "tradeDate": "2026-07-13"
        },
        {
          "investorId": "INV-006",
          "orderId": "ORD-0189",
          "quantity": 35000,
          "side": "SELL",
          "status": "FILLED",
          "symbol": "T-2027-11",
          "tradeDate": "2026-07-14"
        },
        {
          "investorId": "INV-006",
          "orderId": "ORD-0190",
          "quantity": 43000,
          "side": "BUY",
          "status": "PARTIALLY_FILLED",
          "symbol": "T-2027-11",
          "tradeDate": "2026-07-17"
        },
        {
          "investorId": "INV-006",
          "orderId": "ORD-0191",
          "quantity": 94000,
          "side": "SELL",
          "status": "FILLED",
          "symbol": "T-2030-05",
          "tradeDate": "2026-07-15"
        },
        {
          "investorId": "INV-006",
          "orderId": "ORD-0192",
          "quantity": 56000,
          "side": "BUY",
          "status": "NEW",
          "symbol": "T-2030-05",
          "tradeDate": "2026-07-09"
        },
        {
          "investorId": "INV-006",
          "orderId": "ORD-0193",
          "quantity": 11000,
          "side": "SELL",
          "status": "FILLED",
          "symbol": "T-2030-05",
          "tradeDate": "2026-07-15"
        },
        {
          "investorId": "INV-006",
          "orderId": "ORD-0194",
          "quantity": 98000,
          "side": "BUY",
          "status": "FILLED",
          "symbol": "T-2035-08",
          "tradeDate": "2026-07-07"
        },
        {
          "investorId": "INV-006",
          "orderId": "ORD-0195",
          "quantity": 1907,
          "side": "SELL",
          "status": "CANCELLED",
          "symbol": "REIT-VNQ",
          "tradeDate": "2026-07-17"
        },
        {
          "investorId": "INV-006",
          "orderId": "ORD-0196",
          "quantity": 242,
          "side": "BUY",
          "status": "FILLED",
          "symbol": "GOOGL",
          "tradeDate": "2026-07-15"
        },
        {
          "investorId": "INV-006",
          "orderId": "ORD-0197",
          "quantity": 1208,
          "side": "SELL",
          "status": "NEW",
          "symbol": "MUNI-CA-2036",
          "tradeDate": "2026-07-08"
        },
        {
          "investorId": "INV-007",
          "orderId": "ORD-0198",
          "quantity": 1814,
          "side": "SELL",
          "status": "FILLED",
          "symbol": "BRK-B",
          "tradeDate": "2026-07-14"
        },
        {
          "investorId": "INV-007",
          "orderId": "ORD-0199",
          "quantity": 1600,
          "side": "SELL",
          "status": "FILLED",
          "symbol": "JNJ",
          "tradeDate": "2026-07-16"
        },
        {
          "investorId": "INV-007",
          "orderId": "ORD-0200",
          "quantity": 839,
          "side": "SELL",
          "status": "FILLED",
          "symbol": "JNJ",
          "tradeDate": "2026-07-07"
        },
        {
          "investorId": "INV-007",
          "orderId": "ORD-0201",
          "quantity": 1905,
          "side": "BUY",
          "status": "FILLED",
          "symbol": "JNJ",
          "tradeDate": "2026-07-09"
        },
        {
          "investorId": "INV-007",
          "orderId": "ORD-0202",
          "quantity": 1878,
          "side": "SELL",
          "status": "FILLED",
          "symbol": "JPM",
          "tradeDate": "2026-07-16"
        },
        {
          "investorId": "INV-007",
          "orderId": "ORD-0203",
          "quantity": 1051,
          "side": "BUY",
          "status": "NEW",
          "symbol": "MSFT",
          "tradeDate": "2026-07-06"
        },
        {
          "investorId": "INV-007",
          "orderId": "ORD-0204",
          "quantity": 1638,
          "side": "SELL",
          "status": "FILLED",
          "symbol": "NVDA",
          "tradeDate": "2026-07-16"
        },
        {
          "investorId": "INV-007",
          "orderId": "ORD-0205",
          "quantity": 1125,
          "side": "SELL",
          "status": "CANCELLED",
          "symbol": "NVDA",
          "tradeDate": "2026-07-15"
        },
        {
          "investorId": "INV-007",
          "orderId": "ORD-0206",
          "quantity": 672,
          "side": "SELL",
          "status": "FILLED",
          "symbol": "UNH",
          "tradeDate": "2026-07-06"
        },
        {
          "investorId": "INV-007",
          "orderId": "ORD-0207",
          "quantity": 39,
          "side": "SELL",
          "status": "FILLED",
          "symbol": "UNH",
          "tradeDate": "2026-07-16"
        },
        {
          "investorId": "INV-007",
          "orderId": "ORD-0208",
          "quantity": 71000,
          "side": "SELL",
          "status": "CANCELLED",
          "symbol": "CORP-GE-2031",
          "tradeDate": "2026-07-14"
        },
        {
          "investorId": "INV-007",
          "orderId": "ORD-0209",
          "quantity": 64000,
          "side": "BUY",
          "status": "FILLED",
          "symbol": "MUNI-NY-2033",
          "tradeDate": "2026-07-10"
        },
        {
          "investorId": "INV-007",
          "orderId": "ORD-0210",
          "quantity": 65000,
          "side": "SELL",
          "status": "FILLED",
          "symbol": "T-2027-11",
          "tradeDate": "2026-07-10"
        },
        {
          "investorId": "INV-007",
          "orderId": "ORD-0211",
          "quantity": 35000,
          "side": "SELL",
          "status": "FILLED",
          "symbol": "T-2027-11",
          "tradeDate": "2026-07-08"
        },
        {
          "investorId": "INV-007",
          "orderId": "ORD-0212",
          "quantity": 32000,
          "side": "BUY",
          "status": "NEW",
          "symbol": "T-2030-05",
          "tradeDate": "2026-07-16"
        },
        {
          "investorId": "INV-007",
          "orderId": "ORD-0213",
          "quantity": 422,
          "side": "SELL",
          "status": "NEW",
          "symbol": "PE-FUND-VII",
          "tradeDate": "2026-07-17"
        },
        {
          "investorId": "INV-007",
          "orderId": "ORD-0214",
          "quantity": 1614,
          "side": "BUY",
          "status": "NEW",
          "symbol": "TIMBER-LP",
          "tradeDate": "2026-07-07"
        },
        {
          "investorId": "INV-007",
          "orderId": "ORD-0215",
          "quantity": 538,
          "side": "SELL",
          "status": "FILLED",
          "symbol": "TIMBER-LP",
          "tradeDate": "2026-07-16"
        },
        {
          "investorId": "INV-007",
          "orderId": "ORD-0216",
          "quantity": 625,
          "side": "BUY",
          "status": "FILLED",
          "symbol": "TIMBER-LP",
          "tradeDate": "2026-07-15"
        },
        {
          "investorId": "INV-007",
          "orderId": "ORD-0217",
          "quantity": 1220,
          "side": "SELL",
          "status": "FILLED",
          "symbol": "SPX-C-6500-DEC26",
          "tradeDate": "2026-07-14"
        },
        {
          "investorId": "INV-008",
          "orderId": "ORD-0218",
          "quantity": 1185,
          "side": "BUY",
          "status": "FILLED",
          "symbol": "AMZN",
          "tradeDate": "2026-07-16"
        },
        {
          "investorId": "INV-008",
          "orderId": "ORD-0219",
          "quantity": 651,
          "side": "BUY",
          "status": "FILLED",
          "symbol": "AMZN",
          "tradeDate": "2026-07-09"
        },
        {
          "investorId": "INV-008",
          "orderId": "ORD-0220",
          "quantity": 819,
          "side": "BUY",
          "status": "PARTIALLY_FILLED",
          "symbol": "AMZN",
          "tradeDate": "2026-07-15"
        },
        {
          "investorId": "INV-008",
          "orderId": "ORD-0221",
          "quantity": 1013,
          "side": "SELL",
          "status": "CANCELLED",
          "symbol": "BRK-B",
          "tradeDate": "2026-07-13"
        },
        {
          "investorId": "INV-008",
          "orderId": "ORD-0222",
          "quantity": 1089,
          "side": "SELL",
          "status": "FILLED",
          "symbol": "BRK-B",
          "tradeDate": "2026-07-13"
        },
        {
          "investorId": "INV-008",
          "orderId": "ORD-0223",
          "quantity": 1675,
          "side": "BUY",
          "status": "CANCELLED",
          "symbol": "GOOGL",
          "tradeDate": "2026-07-15"
        },
        {
          "investorId": "INV-008",
          "orderId": "ORD-0224",
          "quantity": 1580,
          "side": "SELL",
          "status": "FILLED",
          "symbol": "GOOGL",
          "tradeDate": "2026-07-17"
        },
        {
          "investorId": "INV-008",
          "orderId": "ORD-0225",
          "quantity": 884,
          "side": "BUY",
          "status": "FILLED",
          "symbol": "JNJ",
          "tradeDate": "2026-07-07"
        }
      ],
      "page": 3,
      "pageSize": 75,
      "totalItems": 292,
      "totalPages": 4
    },
    "status": 200
  }
}
