{
  "request": {
    "method": "GET",
    "queryParameters": {
      "page": {
        "equalTo": "1"
      },
      "pageSize": {
        "equalTo": "75"
      }
    },
    "urlPath": "/orders"
  },
  "response": {
    "headers": {
      "Content-Type": "application/json"
    },
    "jsonBody": {
      "data": [
        {
          "investorId": "INV-001",
          "orderId": "ORD-0001",
          "quantity": 1894,
          "side": "SELL",
          "status": "FILLED",
          "symbol": "AAPL-C-260-DEC26",
          "tradeDate": "2026-07-06"
        },
        {
          "investorId": "INV-001",
          "orderId": "ORD-0002",
          "quantity": 1638,
          "side": "SELL",
          "status": "FILLED",
          "symbol": "TSLA-P-300-JAN27",
          "tradeDate": "2026-07-07"
        },
        {
          "investorId": "INV-001",
          "orderId": "ORD-0003",
          "quantity": 471,
          "side": "SELL",
          "status": "NEW",
          "symbol": "TSLA-P-300-JAN27",
          "tradeDate": "2026-07-10"
        },
        {
          "investorId": "INV-001",
          "orderId": "ORD-0004",
          "quantity": 888,
          "side": "SELL",
          "status": "CANCELLED",
          "symbol": "WTI-CL-AUG26-FUT",
          "tradeDate": "2026-07-09"
        },
        {
          "investorId": "INV-001",
          "orderId": "ORD-0005",
          "quantity": 702,
          "side": "BUY",
          "status": "NEW",
          "symbol": "AAPL",
          "tradeDate": "2026-07-07"
        },
        {
          "investorId": "INV-001",
          "orderId": "ORD-0006",
          "quantity": 856,
          "side": "BUY",
          "status": "FILLED",
          "symbol": "BRK-B",
          "tradeDate": "2026-07-09"
        },
        {
          "investorId": "INV-001",
          "orderId": "ORD-0007",
          "quantity": 1453,
          "side": "SELL",
          "status": "FILLED",
          "symbol": "GOOGL",
          "tradeDate": "2026-07-14"
        },
        {
          "investorId": "INV-001",
          "orderId": "ORD-0008",
          "quantity": 1355,
          "side": "BUY",
          "status": "FILLED",
          "symbol": "GOOGL",
          "tradeDate": "2026-07-08"
        },
        {
          "investorId": "INV-001",
          "orderId": "ORD-0009",
          "quantity": 1962,
          "side": "BUY",
          "status": "FILLED",
          "symbol": "JNJ",
          "tradeDate": "2026-07-09"
        },
        {
          "investorId": "INV-001",
          "orderId": "ORD-0010",
          "quantity": 590,
          "side": "BUY",
          "status": "FILLED",
          "symbol": "JNJ",
          "tradeDate": "2026-07-14"
        },
        {
          "investorId": "INV-001",
          "orderId": "ORD-0011",
          "quantity": 249,
          "side": "SELL",
          "status": "FILLED",
          "symbol": "TSLA",
          "tradeDate": "2026-07-10"
        },
        {
          "investorId": "INV-001",
          "orderId": "ORD-0012",
          "quantity": 1268,
          "side": "BUY",
          "status": "NEW",
          "symbol": "XOM",
          "tradeDate": "2026-07-09"
        },
        {
          "investorId": "INV-001",
          "orderId": "ORD-0013",
          "quantity": 53000,
          "side": "SELL",
          "status": "NEW",
          "symbol": "CORP-IBM-2029",
          "tradeDate": "2026-07-16"
        },
        {
          "investorId": "INV-001",
          "orderId": "ORD-0014",
          "quantity": 48000,
          "side": "BUY",
          "status": "FILLED",
          "symbol": "CORP-MSFT-2033",
          "tradeDate": "2026-07-16"
        },
        {
          "investorId": "INV-001",
          "orderId": "ORD-0015",
          "quantity": 20000,
          "side": "SELL",
          "status": "FILLED",
          "symbol": "CORP-MSFT-2033",
          "tradeDate": "2026-07-15"
        },
        {
          "investorId": "INV-001",
          "orderId": "ORD-0016",
          "quantity": 21000,
          "side": "BUY",
          "status": "NEW",
          "symbol": "CORP-MSFT-2033",
          "tradeDate": "2026-07-17"
        },
        {
          "investorId": "INV-001",
          "orderId": "ORD-0017",
          "quantity": 90000,
          "side": "BUY",
          "status": "NEW",
          "symbol": "T-2027-11",
          "tradeDate": "2026-07-13"
        },
        {
          "investorId": "INV-001",
          "orderId": "ORD-0018",
          "quantity": 81000,
          "side": "BUY",
          "status": "FILLED",
          "symbol": "T-2027-11",
          "tradeDate": "2026-07-16"
        },
        {
          "investorId": "INV-001",
          "orderId": "ORD-0019",
          "quantity": 45000,
          "side": "SELL",
          "status": "FILLED",
          "symbol": "T-2030-05",
          "tradeDate": "2026-07-15"
        },
        {
          "investorId": "INV-001",
          "orderId": "ORD-0020",
          "quantity": 100000,
          "side": "BUY",
          "status": "FILLED",
          "symbol": "T-2030-05",
          "tradeDate": "2026-07-06"
        },
        {
          "investorId": "INV-001",
          "orderId": "ORD-0021",
          "quantity": 193,
          "side": "BUY",
          "status": "NEW",
          "symbol": "ART-FUND-III",
          "tradeDate": "2026-07-15"
        },
        {
          "investorId": "INV-001",
          "orderId": "ORD-0022",
          "quantity": 1203,
          "side": "SELL",
          "status": "NEW",
          "symbol": "ART-FUND-III",
          "tradeDate": "2026-07-17"
        },
        {
          "investorId": "INV-001",
          "orderId": "ORD-0023",
          "quantity": 650,
          "side": "BUY",
          "status": "FILLED",
          "symbol": "PE-FUND-VII",
          "tradeDate": "2026-07-17"
        },
        {
          "investorId": "INV-001",
          "orderId": "ORD-0024",
          "quantity": 1260,
          "side": "BUY",
          "status": "FILLED",
          "symbol": "TIMBER-LP",
          "tradeDate": "2026-07-06"
        },
        {
          "investorId": "INV-001",
          "orderId": "ORD-0025",
          "quantity": 1602,
          "side": "BUY",
          "status": "FILLED",
          "symbol": "MSFT-P-480-SEP26",
          "tradeDate": "2026-07-13"
        },
        {
          "investorId": "INV-002",
          "orderId": "ORD-0026",
          "quantity": 1399,
          "side": "SELL",
          "status": "FILLED",
          "symbol": "NVDA-C-220-MAR27",
          "tradeDate": "2026-07-13"
        },
        {
          "investorId": "INV-002",
          "orderId": "ORD-0027",
          "quantity": 478,
          "side": "BUY",
          "status": "NEW",
          "symbol": "NVDA-C-220-MAR27",
          "tradeDate": "2026-07-07"
        },
        {
          "investorId": "INV-002",
          "orderId": "ORD-0028",
          "quantity": 288,
          "side": "BUY",
          "status": "PARTIALLY_FILLED",
          "symbol": "NVDA-C-220-MAR27",
          "tradeDate": "2026-07-13"
        },
        {
          "investorId": "INV-002",
          "orderId": "ORD-0029",
          "quantity": 971,
          "side": "SELL",
          "status": "CANCELLED",
          "symbol": "AAPL",
          "tradeDate": "2026-07-06"
        },
        {
          "investorId": "INV-002",
          "orderId": "ORD-0030",
          "quantity": 1721,
          "side": "BUY",
          "status": "NEW",
          "symbol": "GOOGL",
          "tradeDate": "2026-07-13"
        },
        {
          "investorId": "INV-002",
          "orderId": "ORD-0031",
          "quantity": 1221,
          "side": "BUY",
          "status": "FILLED",
          "symbol": "JPM",
          "tradeDate": "2026-07-08"
        },
        {
          "investorId": "INV-002",
          "orderId": "ORD-0032",
          "quantity": 1600,
          "side": "SELL",
          "status": "FILLED",
          "symbol": "MSFT",
          "tradeDate": "2026-07-14"
        },
        {
          "investorId": "INV-002",
          "orderId": "ORD-0033",
          "quantity": 615,
          "side": "BUY",
          "status": "PARTIALLY_FILLED",
          "symbol": "TSLA",
          "tradeDate": "2026-07-06"
        },
        {
          "investorId": "INV-002",
          "orderId": "ORD-0034",
          "quantity": 826,
          "side": "SELL",
          "status": "FILLED",
          "symbol": "TSLA",
          "tradeDate": "2026-07-13"
        },
        {
          "investorId": "INV-002",
          "orderId": "ORD-0035",
          "quantity": 404,
          "side": "SELL",
          "status": "CANCELLED",
          "symbol": "TSLA",
          "tradeDate": "2026-07-07"
        },
        {
          "investorId": "INV-002",
          "orderId": "ORD-0036",
          "quantity": 1803,
          "side": "BUY",
          "status": "FILLED",
          "symbol": "UNH",
          "tradeDate": "2026-07-09"
        },
        {
          "investorId": "INV-002",
          "orderId": "ORD-0037",
          "quantity": 81000,
          "side": "SELL",
          "status": "FILLED",
          "symbol": "CORP-GE-2031",
          "tradeDate": "2026-07-14"
        },
        {
          "investorId": "INV-002",
          "orderId": "ORD-0038",
          "quantity": 94000,
          "side": "SELL",
          "status": "CANCELLED",
          "symbol": "CORP-GE-2031",
          "tradeDate": "2026-07-14"
        },
        {
          "investorId": "INV-002",
          "orderId": "ORD-0039",
          "quantity": 48000,
          "side": "SELL",
          "status": "FILLED",
          "symbol": "CORP-GE-2031",
          "tradeDate": "2026-07-06"
        },
        {
          "investorId": "INV-002",
          "orderId": "ORD-0040",
          "quantity": 51000,
          "side": "BUY",
          "status": "NEW",
          "symbol": "CORP-IBM-2029",
          "tradeDate": "2026-07-14"
        },
        {
          "investorId": "INV-002",
          "orderId": "ORD-0041",
          "quantity": 99000,
          "side": "SELL",
          "status": "FILLED",
          "symbol": "CORP-IBM-2029",
          "tradeDate": "2026-07-07"
        },
        {
          "investorId": "INV-002",
          "orderId": "ORD-0042",
          "quantity": 3000,
          "side": "BUY",
          "status": "FILLED",
          "symbol": "MUNI-CA-2036",
          "tradeDate": "2026-07-08"
        },
        {
          "investorId": "INV-002",
          "orderId": "ORD-0043",
          "quantity": 51000,
          "side": "BUY",
          "status": "NEW",
          "symbol": "MUNI-CA-2036",
          "tradeDate": "2026-07-16"
        },
        {
          "investorId": "INV-002",
          "orderId": "ORD-0044",
          "quantity": 72000,
          "side": "BUY",
          "status": "NEW",
          "symbol": "MUNI-NY-2033",
          "tradeDate": "2026-07-17"
        },
        {
          "investorId": "INV-002",
          "orderId": "ORD-0045",
          "quantity": 99000,
          "side": "BUY",
          "status": "FILLED",
          "symbol": "MUNI-NY-2033",
          "tradeDate": "2026-07-08"
        },
        {
          "investorId": "INV-002",
          "orderId": "ORD-0046",
          "quantity": 51000,
          "side": "SELL",
          "status": "FILLED",
          "symbol": "MUNI-NY-2033",
          "tradeDate": "2026-07-06"
        },
        {
          "investorId": "INV-002",
          "orderId": "ORD-0047",
          "quantity": 12000,
          "side": "SELL",
          "status": "FILLED",
          "symbol": "T-2030-05",
          "tradeDate": "2026-07-06"
        },
        {
          "investorId": "INV-002",
          "orderId": "ORD-0048",
          "quantity": 88000,
          "side": "SELL",
          "status": "FILLED",
          "symbol": "T-2030-05",
          "tradeDate": "2026-07-16"
        },
        {
          "investorId": "INV-002",
          "orderId": "ORD-0049",
          "quantity": 89000,
          "side": "BUY",
          "status": "FILLED",
          "symbol": "T-2030-05",
          "tradeDate": "2026-07-14"
        },
        {
          "investorId": "INV-002",
          "orderId": "ORD-0050",
          "quantity": 2000,
          "side": "BUY",
          "status": "PARTIALLY_FILLED",
          "symbol": "T-2035-08",
          "tradeDate": "2026-07-17"
        },
        {
          "investorId": "INV-002",
          "orderId": "ORD-0051",
          "quantity": 59000,
          "side": "SELL",
          "status": "CANCELLED",
          "symbol": "T-2035-08",
          "tradeDate": "2026-07-09"
        },
        {
          "investorId": "INV-002",
          "orderId": "ORD-0052",
          "quantity": 6000,
          "side": "SELL",
          "status": "FILLED",
          "symbol": "T-2035-08",
          "tradeDate": "2026-07-10"
        },
        {
          "investorId": "INV-002",
          "orderId": "ORD-0053",
          "quantity": 1391,
          "side": "BUY",
          "status": "FILLED",
          "symbol": "ART-FUND-III",
          "tradeDate": "2026-07-17"
        },
        {
          "investorId": "INV-002",
          "orderId": "ORD-0054",
          "quantity": 1189,
          "side": "SELL",
          "status": "PARTIALLY_FILLED",
          "symbol": "ART-FUND-III",
          "tradeDate": "2026-07-10"
        },
        {
          "investorId": "INV-002",
          "orderId": "ORD-0055",
          "quantity": 1430,
          "side": "SELL",
          "status": "FILLED",
          "symbol": "PE-FUND-VII",
          "tradeDate": "2026-07-13"
        },
        {
          "investorId": "INV-002",
          "orderId": "ORD-0056",
          "quantity": 155,
          "side": "BUY",
          "status": "FILLED",
          "symbol": "PE-FUND-VII",
          "tradeDate": "2026-07-17"
        },
        {
          "investorId": "INV-002",
          "orderId": "ORD-0057",
          "quantity": 1535,
          "side": "BUY",
          "status": "FILLED",
          "symbol": "PE-FUND-VII",
          "tradeDate": "2026-07-10"
        },
        {
          "investorId": "INV-002",
          "orderId": "ORD-0058",
          "quantity": 497,
          "side": "BUY",
          "status": "NEW",
          "symbol": "TIMBER-LP",
          "tradeDate": "2026-07-16"
        },
        {
          "investorId": "INV-002",
          "orderId": "ORD-0059",
          "quantity": 898,
          "side": "SELL",
          "status": "NEW",
          "symbol": "WINE-LP",
          "tradeDate": "2026-07-13"
        },
        {
          "investorId": "INV-002",
          "orderId": "ORD-0060",
          "quantity": 501,
          "side": "SELL",
          "status": "PARTIALLY_FILLED",
          "symbol": "WINE-LP",
          "tradeDate": "2026-07-09"
        },
        {
          "investorId": "INV-002",
          "orderId": "ORD-0061",
          "quantity": 522,
          "side": "SELL",
          "status": "CANCELLED",
          "symbol": "AMZN",
          "tradeDate": "2026-07-17"
        },
        {
          "investorId": "INV-002",
          "orderId": "ORD-0062",
          "quantity": 159,
          "side": "BUY",
          "status": "NEW",
          "symbol": "REIT-VNQ",
          "tradeDate": "2026-07-16"
        },
        {
          "investorId": "INV-003",
          "orderId": "ORD-0063",
          "quantity": 1401,
          "side": "BUY",
          "status": "NEW",
          "symbol": "AAPL-C-260-DEC26",
          "tradeDate": "2026-07-13"
        },
        {
          "investorId": "INV-003",
          "orderId": "ORD-0064",
          "quantity": 851,
          "side": "SELL",
          "status": "FILLED",
          "symbol": "ESU26-FUT",
          "tradeDate": "2026-07-14"
        },
        {
          "investorId": "INV-003",
          "orderId": "ORD-0065",
          "quantity": 1163,
          "side": "BUY",
          "status": "FILLED",
          "symbol": "SPX-C-6500-DEC26",
          "tradeDate": "2026-07-13"
        },
        {
          "investorId": "INV-003",
          "orderId": "ORD-0066",
          "quantity": 1341,
          "side": "BUY",
          "status": "FILLED",
          "symbol": "SPX-C-6500-DEC26",
          "tradeDate": "2026-07-10"
        },
        {
          "investorId": "INV-003",
          "orderId": "ORD-0067",
          "quantity": 880,
          "side": "BUY",
          "status": "FILLED",
          "symbol": "TSLA-P-300-JAN27",
          "tradeDate": "2026-07-07"
        },
        {
          "investorId": "INV-003",
          "orderId": "ORD-0068",
          "quantity": 509,
          "side": "SELL",
          "status": "FILLED",
          "symbol": "TSLA-P-300-JAN27",
          "tradeDate": "2026-07-08"
        },
        {
          "investorId": "INV-003",
          "orderId": "ORD-0069",
          "quantity": 1042,
          "side": "SELL",
          "status": "FILLED",
          "symbol": "TSLA-P-300-JAN27",
          "tradeDate": "2026-07-17"
        },
        {
          "investorId": "INV-003",
          "orderId": "ORD-0070",
          "quantity": 1875,
          "side": "SELL",
          "status": "NEW",
          "symbol": "AAPL",
          "tradeDate": "2026-07-13"
        },
        {
          "investorId": "INV-003",
          "orderId": "ORD-0071",
          "quantity": 1352,
          "side": "BUY",
          "status": "FILLED",
          "symbol": "AAPL",
          "tradeDate": "2026-07-10"
        },
        {
          "investorId": "INV-003",
          "orderId": "ORD-0072",
          "quantity": 258,
          "side": "SELL",
          "status": "FILLED",
          "symbol": "AMZN",
          "tradeDate": "2026-07-09"
        },
        {
          "investorId": "INV-003",
          "orderId": "ORD-0073",
          "quantity": 1818,
          "side": "BUY",
          "status": "FILLED",
          "symbol": "BRK-B",
          "tradeDate": "2026-07-10"
        },
        {
          "investorId": "INV-003",
          "orderId": "ORD-0074",
          "quantity": 1838,
          "side": "BUY",
          "status": "FILLED",
          "symbol": "BRK-B",
          "tradeDate": "2026-07-10"
        },
        {
          "investorId": "INV-003",
          "orderId": "ORD-0075",
          "quantity": 65,
          "side": "SELL",
          "status": "FILLED",
          "symbol": "BRK-B",
          "tradeDate": "2026-07-15"
        }
      ],
      "page": 1,
      "pageSize": 75,
      "totalItems": 292,
      "totalPages": 4
    },
    "status": 200
  }
}
