{
  "request": {
    "method": "GET",
    "queryParameters": {
      "page": {
        "equalTo": "4"
      },
      "pageSize": {
        "equalTo": "75"
      }
    },
    "urlPath": "/orders"
  },
  "response": {
    "headers": {
      "Content-Type": "application/json"
    },
    "jsonBody": {
      "data": [
        {
          "investorId": "INV-008",
          "orderId": "ORD-0226",
          "quantity": 1373,
          "side": "BUY",
          "status": "PARTIALLY_FILLED",
          "symbol": "JNJ",
          "tradeDate": "2026-07-06"
        },
        {
          "investorId": "INV-008",
          "orderId": "ORD-0227",
          "quantity": 1830,
          "side": "SELL",
          "status": "CANCELLED",
          "symbol": "JPM",
          "tradeDate": "2026-07-15"
        },
        {
          "investorId": "INV-008",
          "orderId": "ORD-0228",
          "quantity": 1062,
          "side": "SELL",
          "status": "FILLED",
          "symbol": "JPM",
          "tradeDate": "2026-07-17"
        },
        {
          "investorId": "INV-008",
          "orderId": "ORD-0229",
          "quantity": 1970,
          "side": "SELL",
          "status": "NEW",
          "symbol": "PG",
          "tradeDate": "2026-07-13"
        },
        {
          "investorId": "INV-008",
          "orderId": "ORD-0230",
          "quantity": 1694,
          "side": "SELL",
          "status": "PARTIALLY_FILLED",
          "symbol": "PG",
          "tradeDate": "2026-07-06"
        },
        {
          "investorId": "INV-008",
          "orderId": "ORD-0231",
          "quantity": 980,
          "side": "BUY",
          "status": "PARTIALLY_FILLED",
          "symbol": "PG",
          "tradeDate": "2026-07-06"
        },
        {
          "investorId": "INV-008",
          "orderId": "ORD-0232",
          "quantity": 125,
          "side": "SELL",
          "status": "CANCELLED",
          "symbol": "TSLA",
          "tradeDate": "2026-07-14"
        },
        {
          "investorId": "INV-008",
          "orderId": "ORD-0233",
          "quantity": 171,
          "side": "SELL",
          "status": "FILLED",
          "symbol": "TSLA",
          "tradeDate": "2026-07-06"
        },
        {
          "investorId": "INV-008",
          "orderId": "ORD-0234",
          "quantity": 34000,
          "side": "SELL",
          "status": "NEW",
          "symbol": "CORP-IBM-2029",
          "tradeDate": "2026-07-10"
        },
        {
          "investorId": "INV-008",
          "orderId": "ORD-0235",
          "quantity": 6000,
          "side": "SELL",
          "status": "FILLED",
          "symbol": "CORP-IBM-2029",
          "tradeDate": "2026-07-09"
        },
        {
          "investorId": "INV-008",
          "orderId": "ORD-0236",
          "quantity": 68000,
          "side": "BUY",
          "status": "FILLED",
          "symbol": "CORP-IBM-2029",
          "tradeDate": "2026-07-15"
        },
        {
          "investorId": "INV-008",
          "orderId": "ORD-0237",
          "quantity": 36000,
          "side": "SELL",
          "status": "PARTIALLY_FILLED",
          "symbol": "MUNI-CA-2036",
          "tradeDate": "2026-07-16"
        },
        {
          "investorId": "INV-008",
          "orderId": "ORD-0238",
          "quantity": 57000,
          "side": "BUY",
          "status": "FILLED",
          "symbol": "MUNI-CA-2036",
          "tradeDate": "2026-07-17"
        },
        {
          "investorId": "INV-008",
          "orderId": "ORD-0239",
          "quantity": 38000,
          "side": "SELL",
          "status": "FILLED",
          "symbol": "T-2030-05",
          "tradeDate": "2026-07-13"
        },
        {
          "investorId": "INV-008",
          "orderId": "ORD-0240",
          "quantity": 61000,
          "side": "SELL",
          "status": "FILLED",
          "symbol": "T-2030-05",
          "tradeDate": "2026-07-10"
        },
        {
          "investorId": "INV-008",
          "orderId": "ORD-0241",
          "quantity": 66000,
          "side": "SELL",
          "status": "PARTIALLY_FILLED",
          "symbol": "T-2030-05",
          "tradeDate": "2026-07-09"
        },
        {
          "investorId": "INV-008",
          "orderId": "ORD-0242",
          "quantity": 37000,
          "side": "BUY",
          "status": "FILLED",
          "symbol": "T-2035-08",
          "tradeDate": "2026-07-09"
        },
        {
          "investorId": "INV-008",
          "orderId": "ORD-0243",
          "quantity": 664,
          "side": "BUY",
          "status": "FILLED",
          "symbol": "ART-FUND-III",
          "tradeDate": "2026-07-14"
        },
        {
          "investorId": "INV-008",
          "orderId": "ORD-0244",
          "quantity": 110,
          "side": "BUY",
          "status": "FILLED",
          "symbol": "GLD-ETF",
          "tradeDate": "2026-07-07"
        },
        {
          "investorId": "INV-008",
          "orderId": "ORD-0245",
          "quantity": 1104,
          "side": "BUY",
          "status": "FILLED",
          "symbol": "WINE-LP",
          "tradeDate": "2026-07-08"
        },
        {
          "investorId": "INV-009",
          "orderId": "ORD-0246",
          "quantity": 669,
          "side": "BUY",
          "status": "NEW",
          "symbol": "ESU26-FUT",
          "tradeDate": "2026-07-16"
        },
        {
          "investorId": "INV-009",
          "orderId": "ORD-0247",
          "quantity": 1436,
          "side": "BUY",
          "status": "NEW",
          "symbol": "ESU26-FUT",
          "tradeDate": "2026-07-09"
        },
        {
          "investorId": "INV-009",
          "orderId": "ORD-0248",
          "quantity": 1297,
          "side": "SELL",
          "status": "FILLED",
          "symbol": "NVDA-C-220-MAR27",
          "tradeDate": "2026-07-16"
        },
        {
          "investorId": "INV-009",
          "orderId": "ORD-0249",
          "quantity": 24,
          "side": "SELL",
          "status": "NEW",
          "symbol": "SPX-C-6500-DEC26",
          "tradeDate": "2026-07-16"
        },
        {
          "investorId": "INV-009",
          "orderId": "ORD-0250",
          "quantity": 1459,
          "side": "SELL",
          "status": "FILLED",
          "symbol": "SPX-C-6500-DEC26",
          "tradeDate": "2026-07-14"
        },
        {
          "investorId": "INV-009",
          "orderId": "ORD-0251",
          "quantity": 1879,
          "side": "SELL",
          "status": "FILLED",
          "symbol": "SPX-C-6500-DEC26",
          "tradeDate": "2026-07-14"
        },
        {
          "investorId": "INV-009",
          "orderId": "ORD-0252",
          "quantity": 90,
          "side": "BUY",
          "status": "FILLED",
          "symbol": "TSLA-P-300-JAN27",
          "tradeDate": "2026-07-09"
        },
        {
          "investorId": "INV-009",
          "orderId": "ORD-0253",
          "quantity": 606,
          "side": "SELL",
          "status": "FILLED",
          "symbol": "TSLA-P-300-JAN27",
          "tradeDate": "2026-07-10"
        },
        {
          "investorId": "INV-009",
          "orderId": "ORD-0254",
          "quantity": 1987,
          "side": "SELL",
          "status": "FILLED",
          "symbol": "AAPL",
          "tradeDate": "2026-07-06"
        },
        {
          "investorId": "INV-009",
          "orderId": "ORD-0255",
          "quantity": 302,
          "side": "SELL",
          "status": "NEW",
          "symbol": "AAPL",
          "tradeDate": "2026-07-13"
        },
        {
          "investorId": "INV-009",
          "orderId": "ORD-0256",
          "quantity": 690,
          "side": "SELL",
          "status": "FILLED",
          "symbol": "BRK-B",
          "tradeDate": "2026-07-08"
        },
        {
          "investorId": "INV-009",
          "orderId": "ORD-0257",
          "quantity": 1830,
          "side": "SELL",
          "status": "FILLED",
          "symbol": "GOOGL",
          "tradeDate": "2026-07-10"
        },
        {
          "investorId": "INV-009",
          "orderId": "ORD-0258",
          "quantity": 395,
          "side": "SELL",
          "status": "PARTIALLY_FILLED",
          "symbol": "GOOGL",
          "tradeDate": "2026-07-07"
        },
        {
          "investorId": "INV-009",
          "orderId": "ORD-0259",
          "quantity": 1116,
          "side": "BUY",
          "status": "PARTIALLY_FILLED",
          "symbol": "MSFT",
          "tradeDate": "2026-07-09"
        },
        {
          "investorId": "INV-009",
          "orderId": "ORD-0260",
          "quantity": 510,
          "side": "SELL",
          "status": "FILLED",
          "symbol": "TSLA",
          "tradeDate": "2026-07-13"
        },
        {
          "investorId": "INV-009",
          "orderId": "ORD-0261",
          "quantity": 1299,
          "side": "BUY",
          "status": "FILLED",
          "symbol": "XOM",
          "tradeDate": "2026-07-07"
        },
        {
          "investorId": "INV-009",
          "orderId": "ORD-0262",
          "quantity": 1871,
          "side": "SELL",
          "status": "FILLED",
          "symbol": "XOM",
          "tradeDate": "2026-07-14"
        },
        {
          "investorId": "INV-009",
          "orderId": "ORD-0263",
          "quantity": 502,
          "side": "SELL",
          "status": "PARTIALLY_FILLED",
          "symbol": "XOM",
          "tradeDate": "2026-07-16"
        },
        {
          "investorId": "INV-009",
          "orderId": "ORD-0264",
          "quantity": 1704,
          "side": "BUY",
          "status": "CANCELLED",
          "symbol": "ART-FUND-III",
          "tradeDate": "2026-07-08"
        },
        {
          "investorId": "INV-009",
          "orderId": "ORD-0265",
          "quantity": 496,
          "side": "BUY",
          "status": "PARTIALLY_FILLED",
          "symbol": "ART-FUND-III",
          "tradeDate": "2026-07-16"
        },
        {
          "investorId": "INV-009",
          "orderId": "ORD-0266",
          "quantity": 1256,
          "side": "BUY",
          "status": "FILLED",
          "symbol": "GLD-ETF",
          "tradeDate": "2026-07-15"
        },
        {
          "investorId": "INV-009",
          "orderId": "ORD-0267",
          "quantity": 1493,
          "side": "SELL",
          "status": "FILLED",
          "symbol": "GLD-ETF",
          "tradeDate": "2026-07-13"
        },
        {
          "investorId": "INV-009",
          "orderId": "ORD-0268",
          "quantity": 1312,
          "side": "SELL",
          "status": "CANCELLED",
          "symbol": "GLD-ETF",
          "tradeDate": "2026-07-09"
        },
        {
          "investorId": "INV-009",
          "orderId": "ORD-0269",
          "quantity": 666,
          "side": "BUY",
          "status": "FILLED",
          "symbol": "PE-FUND-VII",
          "tradeDate": "2026-07-08"
        },
        {
          "investorId": "INV-009",
          "orderId": "ORD-0270",
          "quantity": 546,
          "side": "SELL",
          "status": "CANCELLED",
          "symbol": "T-2035-08",
          "tradeDate": "2026-07-14"
        },
        {
          "investorId": "INV-010",
          "orderId": "ORD-0271",
          "quantity": 1674,
          "side": "BUY",
          "status": "FILLED",
          "symbol": "AAPL-C-260-DEC26",
          "tradeDate": "2026-07-07"
        },
        {
          "investorId": "INV-010",
          "orderId": "ORD-0272",
          "quantity": 1154,
          "side": "SELL",
          "status": "FILLED",
          "symbol": "AAPL-C-260-DEC26",
          "tradeDate": "2026-07-14"
        },
        {
          "investorId": "INV-010",
          "orderId": "ORD-0273",
          "quantity": 1680,
          "side": "BUY",
          "status": "CANCELLED",
          "symbol": "ESU26-FUT",
          "tradeDate": "2026-07-09"
        },
        {
          "investorId": "INV-010",
          "orderId": "ORD-0274",
          "quantity": 346,
          "side": "BUY",
          "status": "FILLED",
          "symbol": "ESU26-FUT",
          "tradeDate": "2026-07-13"
        },
        {
          "investorId": "INV-010",
          "orderId": "ORD-0275",
          "quantity": 560,
          "side": "BUY",
          "status": "FILLED",
          "symbol": "MSFT-P-480-SEP26",
          "tradeDate": "2026-07-17"
        },
        {
          "investorId": "INV-010",
          "orderId": "ORD-0276",
          "quantity": 830,
          "side": "BUY",
          "status": "FILLED",
          "symbol": "SPX-C-6500-DEC26",
          "tradeDate": "2026-07-16"
        },
        {
          "investorId": "INV-010",
          "orderId": "ORD-0277",
          "quantity": 499,
          "side": "BUY",
          "status": "PARTIALLY_FILLED",
          "symbol": "SPX-C-6500-DEC26",
          "tradeDate": "2026-07-08"
        },
        {
          "investorId": "INV-010",
          "orderId": "ORD-0278",
          "quantity": 1480,
          "side": "SELL",
          "status": "FILLED",
          "symbol": "WTI-CL-AUG26-FUT",
          "tradeDate": "2026-07-15"
        },
        {
          "investorId": "INV-010",
          "orderId": "ORD-0279",
          "quantity": 1365,
          "side": "BUY",
          "status": "FILLED",
          "symbol": "WTI-CL-AUG26-FUT",
          "tradeDate": "2026-07-06"
        },
        {
          "investorId": "INV-010",
          "orderId": "ORD-0280",
          "quantity": 1001,
          "side": "BUY",
          "status": "CANCELLED",
          "symbol": "WTI-CL-AUG26-FUT",
          "tradeDate": "2026-07-08"
        },
        {
          "investorId": "INV-010",
          "orderId": "ORD-0281",
          "quantity": 35000,
          "side": "SELL",
          "status": "FILLED",
          "symbol": "CORP-GE-2031",
          "tradeDate": "2026-07-17"
        },
        {
          "investorId": "INV-010",
          "orderId": "ORD-0282",
          "quantity": 9000,
          "side": "BUY",
          "status": "FILLED",
          "symbol": "CORP-GE-2031",
          "tradeDate": "2026-07-13"
        },
        {
          "investorId": "INV-010",
          "orderId": "ORD-0283",
          "quantity": 96000,
          "side": "SELL",
          "status": "FILLED",
          "symbol": "CORP-IBM-2029",
          "tradeDate": "2026-07-09"
        },
        {
          "investorId": "INV-010",
          "orderId": "ORD-0284",
          "quantity": 91000,
          "side": "SELL",
          "status": "PARTIALLY_FILLED",
          "symbol": "CORP-MSFT-2033",
          "tradeDate": "2026-07-09"
        },
        {
          "investorId": "INV-010",
          "orderId": "ORD-0285",
          "quantity": 2000,
          "side": "BUY",
          "status": "NEW",
          "symbol": "CORP-MSFT-2033",
          "tradeDate": "2026-07-06"
        },
        {
          "investorId": "INV-010",
          "orderId": "ORD-0286",
          "quantity": 85000,
          "side": "SELL",
          "status": "FILLED",
          "symbol": "MUNI-CA-2036",
          "tradeDate": "2026-07-08"
        },
        {
          "investorId": "INV-010",
          "orderId": "ORD-0287",
          "quantity": 98000,
          "side": "SELL",
          "status": "FILLED",
          "symbol": "MUNI-NY-2033",
          "tradeDate": "2026-07-15"
        },
        {
          "investorId": "INV-010",
          "orderId": "ORD-0288",
          "quantity": 31000,
          "side": "SELL",
          "status": "FILLED",
          "symbol": "MUNI-NY-2033",
          "tradeDate": "2026-07-16"
        },
        {
          "investorId": "INV-010",
          "orderId": "ORD-0289",
          "quantity": 4000,
          "side": "BUY",
          "status": "NEW",
          "symbol": "MUNI-NY-2033",
          "tradeDate": "2026-07-16"
        },
        {
          "investorId": "INV-010",
          "orderId": "ORD-0290",
          "quantity": 14000,
          "side": "BUY",
          "status": "CANCELLED",
          "symbol": "T-2027-11",
          "tradeDate": "2026-07-09"
        },
        {
          "investorId": "INV-010",
          "orderId": "ORD-0291",
          "quantity": 73000,
          "side": "SELL",
          "status": "NEW",
          "symbol": "T-2027-11",
          "tradeDate": "2026-07-06"
        },
        {
          "investorId": "INV-010",
          "orderId": "ORD-0292",
          "quantity": 337,
          "side": "SELL",
          "status": "FILLED",
          "symbol": "MSFT",
          "tradeDate": "2026-07-16"
        }
      ],
      "page": 4,
      "pageSize": 75,
      "totalItems": 292,
      "totalPages": 4
    },
    "status": 200
  }
}
