{
  "request": {
    "method": "GET",
    "queryParameters": {
      "page": {
        "equalTo": "2"
      },
      "pageSize": {
        "equalTo": "75"
      }
    },
    "urlPath": "/orders"
  },
  "response": {
    "headers": {
      "Content-Type": "application/json"
    },
    "jsonBody": {
      "data": [
        {
          "investorId": "INV-003",
          "orderId": "ORD-0076",
          "quantity": 314,
          "side": "BUY",
          "status": "FILLED",
          "symbol": "GOOGL",
          "tradeDate": "2026-07-17"
        },
        {
          "investorId": "INV-003",
          "orderId": "ORD-0077",
          "quantity": 588,
          "side": "BUY",
          "status": "NEW",
          "symbol": "GOOGL",
          "tradeDate": "2026-07-16"
        },
        {
          "investorId": "INV-003",
          "orderId": "ORD-0078",
          "quantity": 907,
          "side": "BUY",
          "status": "FILLED",
          "symbol": "GOOGL",
          "tradeDate": "2026-07-14"
        },
        {
          "investorId": "INV-003",
          "orderId": "ORD-0079",
          "quantity": 292,
          "side": "BUY",
          "status": "FILLED",
          "symbol": "JNJ",
          "tradeDate": "2026-07-06"
        },
        {
          "investorId": "INV-003",
          "orderId": "ORD-0080",
          "quantity": 1936,
          "side": "SELL",
          "status": "PARTIALLY_FILLED",
          "symbol": "JNJ",
          "tradeDate": "2026-07-07"
        },
        {
          "investorId": "INV-003",
          "orderId": "ORD-0081",
          "quantity": 22,
          "side": "BUY",
          "status": "FILLED",
          "symbol": "JPM",
          "tradeDate": "2026-07-16"
        },
        {
          "investorId": "INV-003",
          "orderId": "ORD-0082",
          "quantity": 1345,
          "side": "SELL",
          "status": "NEW",
          "symbol": "JPM",
          "tradeDate": "2026-07-08"
        },
        {
          "investorId": "INV-003",
          "orderId": "ORD-0083",
          "quantity": 1741,
          "side": "BUY",
          "status": "FILLED",
          "symbol": "JPM",
          "tradeDate": "2026-07-15"
        },
        {
          "investorId": "INV-003",
          "orderId": "ORD-0084",
          "quantity": 1384,
          "side": "SELL",
          "status": "FILLED",
          "symbol": "MSFT",
          "tradeDate": "2026-07-09"
        },
        {
          "investorId": "INV-003",
          "orderId": "ORD-0085",
          "quantity": 1442,
          "side": "SELL",
          "status": "NEW",
          "symbol": "TSLA",
          "tradeDate": "2026-07-15"
        },
        {
          "investorId": "INV-003",
          "orderId": "ORD-0086",
          "quantity": 447,
          "side": "SELL",
          "status": "PARTIALLY_FILLED",
          "symbol": "TSLA",
          "tradeDate": "2026-07-10"
        },
        {
          "investorId": "INV-003",
          "orderId": "ORD-0087",
          "quantity": 945,
          "side": "BUY",
          "status": "NEW",
          "symbol": "UNH",
          "tradeDate": "2026-07-17"
        },
        {
          "investorId": "INV-003",
          "orderId": "ORD-0088",
          "quantity": 16000,
          "side": "BUY",
          "status": "NEW",
          "symbol": "CORP-GE-2031",
          "tradeDate": "2026-07-17"
        },
        {
          "investorId": "INV-003",
          "orderId": "ORD-0089",
          "quantity": 31000,
          "side": "BUY",
          "status": "FILLED",
          "symbol": "CORP-GE-2031",
          "tradeDate": "2026-07-14"
        },
        {
          "investorId": "INV-003",
          "orderId": "ORD-0090",
          "quantity": 77000,
          "side": "SELL",
          "status": "NEW",
          "symbol": "CORP-GE-2031",
          "tradeDate": "2026-07-10"
        },
        {
          "investorId": "INV-003",
          "orderId": "ORD-0091",
          "quantity": 75000,
          "side": "BUY",
          "status": "FILLED",
          "symbol": "T-2035-08",
          "tradeDate": "2026-07-07"
        },
        {
          "investorId": "INV-003",
          "orderId": "ORD-0092",
          "quantity": 33000,
          "side": "BUY",
          "status": "NEW",
          "symbol": "T-2035-08",
          "tradeDate": "2026-07-16"
        },
        {
          "investorId": "INV-003",
          "orderId": "ORD-0093",
          "quantity": 97000,
          "side": "BUY",
          "status": "PARTIALLY_FILLED",
          "symbol": "T-2035-08",
          "tradeDate": "2026-07-06"
        },
        {
          "investorId": "INV-003",
          "orderId": "ORD-0094",
          "quantity": 1126,
          "side": "BUY",
          "status": "CANCELLED",
          "symbol": "GLD-ETF",
          "tradeDate": "2026-07-07"
        },
        {
          "investorId": "INV-003",
          "orderId": "ORD-0095",
          "quantity": 1585,
          "side": "BUY",
          "status": "NEW",
          "symbol": "GLD-ETF",
          "tradeDate": "2026-07-15"
        },
        {
          "investorId": "INV-003",
          "orderId": "ORD-0096",
          "quantity": 335,
          "side": "SELL",
          "status": "NEW",
          "symbol": "PE-FUND-VII",
          "tradeDate": "2026-07-06"
        },
        {
          "investorId": "INV-003",
          "orderId": "ORD-0097",
          "quantity": 1690,
          "side": "SELL",
          "status": "NEW",
          "symbol": "PE-FUND-VII",
          "tradeDate": "2026-07-13"
        },
        {
          "investorId": "INV-003",
          "orderId": "ORD-0098",
          "quantity": 883,
          "side": "SELL",
          "status": "FILLED",
          "symbol": "PE-FUND-VII",
          "tradeDate": "2026-07-08"
        },
        {
          "investorId": "INV-003",
          "orderId": "ORD-0099",
          "quantity": 721,
          "side": "SELL",
          "status": "NEW",
          "symbol": "REIT-VNQ",
          "tradeDate": "2026-07-10"
        },
        {
          "investorId": "INV-003",
          "orderId": "ORD-0100",
          "quantity": 613,
          "side": "SELL",
          "status": "FILLED",
          "symbol": "TIMBER-LP",
          "tradeDate": "2026-07-17"
        },
        {
          "investorId": "INV-003",
          "orderId": "ORD-0101",
          "quantity": 610,
          "side": "BUY",
          "status": "FILLED",
          "symbol": "MSFT-P-480-SEP26",
          "tradeDate": "2026-07-09"
        },
        {
          "investorId": "INV-003",
          "orderId": "ORD-0102",
          "quantity": 560,
          "side": "SELL",
          "status": "FILLED",
          "symbol": "WINE-LP",
          "tradeDate": "2026-07-16"
        },
        {
          "investorId": "INV-004",
          "orderId": "ORD-0103",
          "quantity": 1028,
          "side": "SELL",
          "status": "PARTIALLY_FILLED",
          "symbol": "NVDA-C-220-MAR27",
          "tradeDate": "2026-07-06"
        },
        {
          "investorId": "INV-004",
          "orderId": "ORD-0104",
          "quantity": 299,
          "side": "SELL",
          "status": "NEW",
          "symbol": "SPX-C-6500-DEC26",
          "tradeDate": "2026-07-07"
        },
        {
          "investorId": "INV-004",
          "orderId": "ORD-0105",
          "quantity": 1129,
          "side": "BUY",
          "status": "NEW",
          "symbol": "SPX-C-6500-DEC26",
          "tradeDate": "2026-07-15"
        },
        {
          "investorId": "INV-004",
          "orderId": "ORD-0106",
          "quantity": 381,
          "side": "SELL",
          "status": "FILLED",
          "symbol": "AAPL",
          "tradeDate": "2026-07-07"
        },
        {
          "investorId": "INV-004",
          "orderId": "ORD-0107",
          "quantity": 1977,
          "side": "BUY",
          "status": "FILLED",
          "symbol": "AAPL",
          "tradeDate": "2026-07-10"
        },
        {
          "investorId": "INV-004",
          "orderId": "ORD-0108",
          "quantity": 813,
          "side": "SELL",
          "status": "PARTIALLY_FILLED",
          "symbol": "JNJ",
          "tradeDate": "2026-07-15"
        },
        {
          "investorId": "INV-004",
          "orderId": "ORD-0109",
          "quantity": 1203,
          "side": "SELL",
          "status": "FILLED",
          "symbol": "JNJ",
          "tradeDate": "2026-07-08"
        },
        {
          "investorId": "INV-004",
          "orderId": "ORD-0110",
          "quantity": 82,
          "side": "SELL",
          "status": "FILLED",
          "symbol": "JPM",
          "tradeDate": "2026-07-08"
        },
        {
          "investorId": "INV-004",
          "orderId": "ORD-0111",
          "quantity": 753,
          "side": "SELL",
          "status": "FILLED",
          "symbol": "JPM",
          "tradeDate": "2026-07-10"
        },
        {
          "investorId": "INV-004",
          "orderId": "ORD-0112",
          "quantity": 464,
          "side": "SELL",
          "status": "PARTIALLY_FILLED",
          "symbol": "JPM",
          "tradeDate": "2026-07-14"
        },
        {
          "investorId": "INV-004",
          "orderId": "ORD-0113",
          "quantity": 1151,
          "side": "SELL",
          "status": "FILLED",
          "symbol": "MSFT",
          "tradeDate": "2026-07-08"
        },
        {
          "investorId": "INV-004",
          "orderId": "ORD-0114",
          "quantity": 176,
          "side": "BUY",
          "status": "FILLED",
          "symbol": "MSFT",
          "tradeDate": "2026-07-13"
        },
        {
          "investorId": "INV-004",
          "orderId": "ORD-0115",
          "quantity": 538,
          "side": "SELL",
          "status": "FILLED",
          "symbol": "MSFT",
          "tradeDate": "2026-07-10"
        },
        {
          "investorId": "INV-004",
          "orderId": "ORD-0116",
          "quantity": 482,
          "side": "SELL",
          "status": "FILLED",
          "symbol": "NVDA",
          "tradeDate": "2026-07-15"
        },
        {
          "investorId": "INV-004",
          "orderId": "ORD-0117",
          "quantity": 432,
          "side": "BUY",
          "status": "FILLED",
          "symbol": "TSLA",
          "tradeDate": "2026-07-17"
        },
        {
          "investorId": "INV-004",
          "orderId": "ORD-0118",
          "quantity": 312,
          "side": "SELL",
          "status": "FILLED",
          "symbol": "UNH",
          "tradeDate": "2026-07-10"
        },
        {
          "investorId": "INV-004",
          "orderId": "ORD-0119",
          "quantity": 351,
          "side": "SELL",
          "status": "PARTIALLY_FILLED",
          "symbol": "XOM",
          "tradeDate": "2026-07-14"
        },
        {
          "investorId": "INV-004",
          "orderId": "ORD-0120",
          "quantity": 599,
          "side": "SELL",
          "status": "FILLED",
          "symbol": "XOM",
          "tradeDate": "2026-07-13"
        },
        {
          "investorId": "INV-004",
          "orderId": "ORD-0121",
          "quantity": 61000,
          "side": "SELL",
          "status": "FILLED",
          "symbol": "CORP-GE-2031",
          "tradeDate": "2026-07-10"
        },
        {
          "investorId": "INV-004",
          "orderId": "ORD-0122",
          "quantity": 97000,
          "side": "BUY",
          "status": "FILLED",
          "symbol": "MUNI-NY-2033",
          "tradeDate": "2026-07-13"
        },
        {
          "investorId": "INV-004",
          "orderId": "ORD-0123",
          "quantity": 80000,
          "side": "BUY",
          "status": "NEW",
          "symbol": "MUNI-NY-2033",
          "tradeDate": "2026-07-09"
        },
        {
          "investorId": "INV-004",
          "orderId": "ORD-0124",
          "quantity": 72000,
          "side": "SELL",
          "status": "FILLED",
          "symbol": "T-2027-11",
          "tradeDate": "2026-07-07"
        },
        {
          "investorId": "INV-004",
          "orderId": "ORD-0125",
          "quantity": 100000,
          "side": "SELL",
          "status": "FILLED",
          "symbol": "T-2027-11",
          "tradeDate": "2026-07-06"
        },
        {
          "investorId": "INV-004",
          "orderId": "ORD-0126",
          "quantity": 42000,
          "side": "BUY",
          "status": "FILLED",
          "symbol": "T-2027-11",
          "tradeDate": "2026-07-14"
        },
        {
          "investorId": "INV-004",
          "orderId": "ORD-0127",
          "quantity": 503,
          "side": "SELL",
          "status": "PARTIALLY_FILLED",
          "symbol": "GLD-ETF",
          "tradeDate": "2026-07-08"
        },
        {
          "investorId": "INV-004",
          "orderId": "ORD-0128",
          "quantity": 1475,
          "side": "BUY",
          "status": "PARTIALLY_FILLED",
          "symbol": "REIT-VNQ",
          "tradeDate": "2026-07-06"
        },
        {
          "investorId": "INV-004",
          "orderId": "ORD-0129",
          "quantity": 1767,
          "side": "BUY",
          "status": "FILLED",
          "symbol": "TIMBER-LP",
          "tradeDate": "2026-07-17"
        },
        {
          "investorId": "INV-004",
          "orderId": "ORD-0130",
          "quantity": 41,
          "side": "SELL",
          "status": "FILLED",
          "symbol": "WINE-LP",
          "tradeDate": "2026-07-08"
        },
        {
          "investorId": "INV-004",
          "orderId": "ORD-0131",
          "quantity": 382,
          "side": "SELL",
          "status": "FILLED",
          "symbol": "WINE-LP",
          "tradeDate": "2026-07-17"
        },
        {
          "investorId": "INV-004",
          "orderId": "ORD-0132",
          "quantity": 1911,
          "side": "BUY",
          "status": "CANCELLED",
          "symbol": "WINE-LP",
          "tradeDate": "2026-07-08"
        },
        {
          "investorId": "INV-004",
          "orderId": "ORD-0133",
          "quantity": 1603,
          "side": "SELL",
          "status": "FILLED",
          "symbol": "AMZN",
          "tradeDate": "2026-07-10"
        },
        {
          "investorId": "INV-004",
          "orderId": "ORD-0134",
          "quantity": 449,
          "side": "BUY",
          "status": "NEW",
          "symbol": "PE-FUND-VII",
          "tradeDate": "2026-07-10"
        },
        {
          "investorId": "INV-005",
          "orderId": "ORD-0135",
          "quantity": 980,
          "side": "SELL",
          "status": "FILLED",
          "symbol": "AAPL-C-260-DEC26",
          "tradeDate": "2026-07-14"
        },
        {
          "investorId": "INV-005",
          "orderId": "ORD-0136",
          "quantity": 1449,
          "side": "BUY",
          "status": "FILLED",
          "symbol": "AAPL-C-260-DEC26",
          "tradeDate": "2026-07-15"
        },
        {
          "investorId": "INV-005",
          "orderId": "ORD-0137",
          "quantity": 1146,
          "side": "SELL",
          "status": "FILLED",
          "symbol": "ESU26-FUT",
          "tradeDate": "2026-07-09"
        },
        {
          "investorId": "INV-005",
          "orderId": "ORD-0138",
          "quantity": 1005,
          "side": "BUY",
          "status": "FILLED",
          "symbol": "ESU26-FUT",
          "tradeDate": "2026-07-17"
        },
        {
          "investorId": "INV-005",
          "orderId": "ORD-0139",
          "quantity": 882,
          "side": "SELL",
          "status": "PARTIALLY_FILLED",
          "symbol": "MSFT-P-480-SEP26",
          "tradeDate": "2026-07-09"
        },
        {
          "investorId": "INV-005",
          "orderId": "ORD-0140",
          "quantity": 533,
          "side": "SELL",
          "status": "FILLED",
          "symbol": "TSLA-P-300-JAN27",
          "tradeDate": "2026-07-07"
        },
        {
          "investorId": "INV-005",
          "orderId": "ORD-0141",
          "quantity": 278,
          "side": "SELL",
          "status": "FILLED",
          "symbol": "BRK-B",
          "tradeDate": "2026-07-13"
        },
        {
          "investorId": "INV-005",
          "orderId": "ORD-0142",
          "quantity": 467,
          "side": "BUY",
          "status": "FILLED",
          "symbol": "BRK-B",
          "tradeDate": "2026-07-07"
        },
        {
          "investorId": "INV-005",
          "orderId": "ORD-0143",
          "quantity": 1715,
          "side": "SELL",
          "status": "NEW",
          "symbol": "GOOGL",
          "tradeDate": "2026-07-17"
        },
        {
          "investorId": "INV-005",
          "orderId": "ORD-0144",
          "quantity": 174,
          "side": "SELL",
          "status": "CANCELLED",
          "symbol": "GOOGL",
          "tradeDate": "2026-07-13"
        },
        {
          "investorId": "INV-005",
          "orderId": "ORD-0145",
          "quantity": 1638,
          "side": "SELL",
          "status": "FILLED",
          "symbol": "GOOGL",
          "tradeDate": "2026-07-13"
        },
        {
          "investorId": "INV-005",
          "orderId": "ORD-0146",
          "quantity": 569,
          "side": "BUY",
          "status": "FILLED",
          "symbol": "JNJ",
          "tradeDate": "2026-07-08"
        },
        {
          "investorId": "INV-005",
          "orderId": "ORD-0147",
          "quantity": 1227,
          "side": "BUY",
          "status": "FILLED",
          "symbol": "JPM",
          "tradeDate": "2026-07-07"
        },
        {
          "investorId": "INV-005",
          "orderId": "ORD-0148",
          "quantity": 416,
          "side": "BUY",
          "status": "FILLED",
          "symbol": "MSFT",
          "tradeDate": "2026-07-09"
        },
        {
          "investorId": "INV-005",
          "orderId": "ORD-0149",
          "quantity": 1449,
          "side": "BUY",
          "status": "FILLED",
          "symbol": "MSFT",
          "tradeDate": "2026-07-13"
        },
        {
          "investorId": "INV-005",
          "orderId": "ORD-0150",
          "quantity": 509,
          "side": "BUY",
          "status": "CANCELLED",
          "symbol": "PG",
          "tradeDate": "2026-07-09"
        }
      ],
      "page": 2,
      "pageSize": 75,
      "totalItems": 292,
      "totalPages": 4
    },
    "status": 200
  }
}
