{
  "request": {
    "method": "GET",
    "queryParameters": {
      "page": {
        "equalTo": "2"
      },
      "pageSize": {
        "equalTo": "50"
      }
    },
    "urlPath": "/positions"
  },
  "response": {
    "headers": {
      "Content-Type": "application/json"
    },
    "jsonBody": {
      "data": [
        {
          "assetClass": "equity",
          "currency": "USD",
          "investorId": "INV-003",
          "marketValue": 342891.38,
          "positionId": "POS-0051",
          "quantity": 3808,
          "symbol": "BRK-B"
        },
        {
          "assetClass": "equity",
          "currency": "USD",
          "investorId": "INV-003",
          "marketValue": 10309.979,
          "positionId": "POS-0052",
          "quantity": 2743,
          "symbol": "GOOGL"
        },
        {
          "assetClass": "equity",
          "currency": "USD",
          "investorId": "INV-003",
          "marketValue": 22041.28,
          "positionId": "POS-0053",
          "quantity": 2183,
          "symbol": "JNJ"
        },
        {
          "assetClass": "equity",
          "currency": "USD",
          "investorId": "INV-003",
          "marketValue": 253244.69,
          "positionId": "POS-0054",
          "quantity": 183,
          "symbol": "JPM"
        },
        {
          "assetClass": "equity",
          "currency": "GBP",
          "investorId": "INV-003",
          "marketValue": 419641.76,
          "positionId": "POS-0055",
          "quantity": 3455,
          "symbol": "MSFT"
        },
        {
          "assetClass": "equity",
          "currency": "GBP",
          "investorId": "INV-003",
          "marketValue": 34422.849,
          "positionId": "POS-0056",
          "quantity": 2378,
          "symbol": "NVDA"
        },
        {
          "assetClass": "equity",
          "currency": "USD",
          "investorId": "INV-003",
          "marketValue": 510511.35,
          "positionId": "POS-0057",
          "quantity": 870,
          "symbol": "PG"
        },
        {
          "assetClass": "equity",
          "currency": "USD",
          "investorId": "INV-003",
          "marketValue": 63325.01,
          "positionId": "POS-0058",
          "quantity": 2671,
          "symbol": "TSLA"
        },
        {
          "assetClass": "equity",
          "currency": "USD",
          "investorId": "INV-003",
          "marketValue": 381979.41,
          "positionId": "POS-0059",
          "quantity": 2039,
          "symbol": "UNH"
        },
        {
          "assetClass": "fixed_income",
          "currency": "USD",
          "investorId": "INV-003",
          "marketValue": 4867.442,
          "positionId": "POS-0060",
          "quantity": 261000,
          "symbol": "CORP-GE-2031"
        },
        {
          "assetClass": "fixed_income",
          "currency": "USD",
          "investorId": "INV-003",
          "marketValue": 220912.27,
          "positionId": "POS-0061",
          "quantity": 183000,
          "symbol": "CORP-MSFT-2033"
        },
        {
          "assetClass": "fixed_income",
          "currency": "EUR",
          "investorId": "INV-003",
          "marketValue": 10318.659,
          "positionId": "POS-0062",
          "quantity": 146000,
          "symbol": "MUNI-CA-2036"
        },
        {
          "assetClass": "fixed_income",
          "currency": "USD",
          "investorId": "INV-003",
          "marketValue": 118429.69,
          "positionId": "POS-0063",
          "quantity": 252000,
          "symbol": "MUNI-NY-2033"
        },
        {
          "assetClass": "fixed_income",
          "currency": "USD",
          "investorId": "INV-003",
          "marketValue": 554538.52,
          "positionId": "POS-0064",
          "quantity": 458000,
          "symbol": "T-2027-11"
        },
        {
          "assetClass": "fixed_income",
          "currency": "USD",
          "investorId": "INV-003",
          "marketValue": 142397.2,
          "positionId": "POS-0065",
          "quantity": 403000,
          "symbol": "T-2030-05"
        },
        {
          "assetClass": "fixed_income",
          "currency": "USD",
          "investorId": "INV-003",
          "marketValue": 322582.25,
          "positionId": "POS-0066",
          "quantity": 303000,
          "symbol": "T-2035-08"
        },
        {
          "assetClass": "other",
          "currency": "USD",
          "investorId": "INV-003",
          "marketValue": 26252.21,
          "positionId": "POS-0067",
          "quantity": 4083.16,
          "symbol": "ART-FUND-III"
        },
        {
          "assetClass": "other",
          "currency": "USD",
          "investorId": "INV-003",
          "marketValue": 28157.455,
          "positionId": "POS-0068",
          "quantity": 19149.22,
          "symbol": "GLD-ETF"
        },
        {
          "assetClass": "other",
          "currency": "GBP",
          "investorId": "INV-003",
          "marketValue": 39892.678,
          "positionId": "POS-0069",
          "quantity": 3421.31,
          "symbol": "PE-FUND-VII"
        },
        {
          "assetClass": "other",
          "currency": "USD",
          "investorId": "INV-003",
          "marketValue": 433395.66,
          "positionId": "POS-0070",
          "quantity": 9582.29,
          "symbol": "REIT-VNQ"
        },
        {
          "assetClass": "other",
          "currency": "USD",
          "investorId": "INV-003",
          "marketValue": 230489.55,
          "positionId": "POS-0071",
          "quantity": 6762.49,
          "symbol": "TIMBER-LP"
        },
        {
          "assetClass": "cash",
          "currency": "GBP",
          "investorId": "INV-004",
          "marketValue": 123518.13,
          "positionId": "POS-0072",
          "quantity": 123518.13,
          "symbol": "GBP-CASH"
        },
        {
          "assetClass": "cash",
          "currency": "USD",
          "investorId": "INV-004",
          "marketValue": 222716.59,
          "positionId": "POS-0073",
          "quantity": 222716.59,
          "symbol": "USD-CASH"
        },
        {
          "assetClass": "derivatives",
          "currency": "USD",
          "investorId": "INV-004",
          "marketValue": 32267.374,
          "positionId": "POS-0074",
          "quantity": 178,
          "symbol": "MSFT-P-480-SEP26"
        },
        {
          "assetClass": "derivatives",
          "currency": "USD",
          "investorId": "INV-004",
          "marketValue": 30326.105,
          "positionId": "POS-0075",
          "quantity": 180,
          "symbol": "NVDA-C-220-MAR27"
        },
        {
          "assetClass": "derivatives",
          "currency": "USD",
          "investorId": "INV-004",
          "marketValue": 445633.96,
          "positionId": "POS-0076",
          "quantity": 15,
          "symbol": "SPX-C-6500-DEC26"
        },
        {
          "assetClass": "equity",
          "currency": "EUR",
          "investorId": "INV-004",
          "marketValue": 173912.25,
          "positionId": "POS-0077",
          "quantity": 2723,
          "symbol": "AAPL"
        },
        {
          "assetClass": "equity",
          "currency": "USD",
          "investorId": "INV-004",
          "marketValue": 1368.325,
          "positionId": "POS-0078",
          "quantity": 1047,
          "symbol": "JNJ"
        },
        {
          "assetClass": "equity",
          "currency": "GBP",
          "investorId": "INV-004",
          "marketValue": 246204.7,
          "positionId": "POS-0079",
          "quantity": 1774,
          "symbol": "JPM"
        },
        {
          "assetClass": "equity",
          "currency": "GBP",
          "investorId": "INV-004",
          "marketValue": 387060.39,
          "positionId": "POS-0080",
          "quantity": 2216,
          "symbol": "MSFT"
        },
        {
          "assetClass": "equity",
          "currency": "EUR",
          "investorId": "INV-004",
          "marketValue": 28784.38,
          "positionId": "POS-0081",
          "quantity": 1625,
          "symbol": "NVDA"
        },
        {
          "assetClass": "equity",
          "currency": "USD",
          "investorId": "INV-004",
          "marketValue": 322059.14,
          "positionId": "POS-0082",
          "quantity": 4959,
          "symbol": "TSLA"
        },
        {
          "assetClass": "equity",
          "currency": "USD",
          "investorId": "INV-004",
          "marketValue": 561871.29,
          "positionId": "POS-0083",
          "quantity": 4676,
          "symbol": "UNH"
        },
        {
          "assetClass": "equity",
          "currency": "USD",
          "investorId": "INV-004",
          "marketValue": 27486.495,
          "positionId": "POS-0084",
          "quantity": 4330,
          "symbol": "XOM"
        },
        {
          "assetClass": "fixed_income",
          "currency": "USD",
          "investorId": "INV-004",
          "marketValue": 433295.7,
          "positionId": "POS-0085",
          "quantity": 246000,
          "symbol": "CORP-GE-2031"
        },
        {
          "assetClass": "fixed_income",
          "currency": "USD",
          "investorId": "INV-004",
          "marketValue": 173919.91,
          "positionId": "POS-0086",
          "quantity": 178000,
          "symbol": "MUNI-NY-2033"
        },
        {
          "assetClass": "fixed_income",
          "currency": "USD",
          "investorId": "INV-004",
          "marketValue": 310108.17,
          "positionId": "POS-0087",
          "quantity": 109000,
          "symbol": "T-2027-11"
        },
        {
          "assetClass": "fixed_income",
          "currency": "USD",
          "investorId": "INV-004",
          "marketValue": 0,
          "positionId": "POS-0088",
          "quantity": 0,
          "symbol": "T-2035-08"
        },
        {
          "assetClass": "other",
          "currency": "USD",
          "investorId": "INV-004",
          "marketValue": 250409.93,
          "positionId": "POS-0089",
          "quantity": 19506.06,
          "symbol": "ART-FUND-III"
        },
        {
          "assetClass": "other",
          "currency": "EUR",
          "investorId": "INV-004",
          "marketValue": 122694.72,
          "positionId": "POS-0090",
          "quantity": 16675.3,
          "symbol": "GLD-ETF"
        },
        {
          "assetClass": "other",
          "currency": "EUR",
          "investorId": "INV-004",
          "marketValue": 178962.02,
          "positionId": "POS-0091",
          "quantity": 5348.31,
          "symbol": "REIT-VNQ"
        },
        {
          "assetClass": "other",
          "currency": "USD",
          "investorId": "INV-004",
          "marketValue": 175104.65,
          "positionId": "POS-0092",
          "quantity": 5810.3,
          "symbol": "TIMBER-LP"
        },
        {
          "assetClass": "other",
          "currency": "EUR",
          "investorId": "INV-004",
          "marketValue": 142002.07,
          "positionId": "POS-0093",
          "quantity": 17052.4,
          "symbol": "WINE-LP"
        },
        {
          "assetClass": "cash",
          "currency": "EUR",
          "investorId": "INV-005",
          "marketValue": 90329.57,
          "positionId": "POS-0094",
          "quantity": 90329.57,
          "symbol": "EUR-CASH"
        },
        {
          "assetClass": "cash",
          "currency": "USD",
          "investorId": "INV-005",
          "marketValue": 89669.67,
          "positionId": "POS-0095",
          "quantity": 89669.67,
          "symbol": "USD-CASH"
        },
        {
          "assetClass": "derivatives",
          "currency": "USD",
          "investorId": "INV-005",
          "marketValue": 34497.22,
          "positionId": "POS-0096",
          "quantity": 164,
          "symbol": "AAPL-C-260-DEC26"
        },
        {
          "assetClass": "derivatives",
          "currency": "USD",
          "investorId": "INV-005",
          "marketValue": 21850.355,
          "positionId": "POS-0097",
          "quantity": 51,
          "symbol": "ESU26-FUT"
        },
        {
          "assetClass": "derivatives",
          "currency": "USD",
          "investorId": "INV-005",
          "marketValue": 358018.08,
          "positionId": "POS-0098",
          "quantity": 64,
          "symbol": "MSFT-P-480-SEP26"
        },
        {
          "assetClass": "derivatives",
          "currency": "USD",
          "investorId": "INV-005",
          "marketValue": 92294.41,
          "positionId": "POS-0099",
          "quantity": 214,
          "symbol": "TSLA-P-300-JAN27"
        },
        {
          "assetClass": "derivatives",
          "currency": "USD",
          "investorId": "INV-005",
          "marketValue": 406127.89,
          "positionId": "POS-0100",
          "quantity": 209,
          "symbol": "WTI-CL-AUG26-FUT"
        }
      ],
      "page": 2,
      "pageSize": 50,
      "totalItems": 207,
      "totalPages": 5
    },
    "status": 200
  }
}
